
* 원인 분석
* 360.pdf
 - 1. 프롤로그에서 맨 마지막 줄이 짤리는 현상
       - 원인 : 맨 마지막 줄이 페이지와 같은 높이에 있어서 짤린다.
       - 대책 1: 작업자가 프롤로그에 직접 쳐 넣는다.
       - 대책 2: 작업자가 설정 파일에서 머릿글 바닥글 자르는 로직이 적용되지 않는 페이지를 지정한다.
 - 2. 28 페이지의 3번과 4번 항이 붙는 현상
       - 원인 : 오른쪽 경계에 3번 문장이 닿아서 4번 항이 붙었다.
       - 대책 : bullet으로 다음 줄이 시작할 경우 다른 문단으로 인식하는 로직 추가.
 - 3. 35 페이지의 ‘흐름에올라타기’ 붙는 현상. 99 페이지의 ‘인간관계기록하기'
       - 원인 : 오른쪽 경계에 닿아서 붙는다.
       - 분석 : 이 문장들 자체가 사람이 보아도 하나의 문단으로 인식할 수 있다.
       - 분석 : 이 문장들은 페이지의 오른쪽에 상당히 쏠려있다.
       - 대책 : 문단 개념에 왼쪽 경계라는 로직을 추가하여 해결한다.
 - 4. 81 페이지의 8번항과 9번항, 13항과 14항이 붙는 현상
       - 원인 : 문단 오른쪽 경계로 인행 붙었다.
 - 5. 81페이지의 14번 항이 나뉘는 현상
       - 원인 : 문장의 끝이 문단의 오른쪽 경계에 속하지 않아서 끊어짐.
       - 분석 : 떨어진 것은 오히려 문제가 아님, 붙는 것이 문제임.
  - 6. 93 페이지의 ‘영감’ 관대 지선 이후 스페이스 사라지는 현상
       - 원인 : 아마도 이것은 linearize에서 같은 라인으로 취급되지 못한 것 같다.
       - 분석 : xml에서는 스페이스가 있음.
  - 7. 112 페이지에서 ‘음식은 즐거움이어야 한다’ 문장 앞의 별표가 없다.
       - 원인 : xml에서도 별표가 없다.
       - 분석 : 이것은 pdftohtml차원의 문제일 것으로 파악되고, 현재는 개선 불가능하다.
  - 8. 131 페이지의 ‘성공식단’에서 문단이 끊어지는 현상
       - 원인 : 오른쪽 경계가 형성되지 않아서…
       - 대책 :  문단의 경계 구하는 로직에서 로컬화를 적용한다면 아마도?
  - 9. 140 페이지의 ‘쓰레기 같은 삶을” 라는 인용구가 그림처럼 문장들 사이에 들어간 것을 리플로우하지 못하는 현상
       - 원인 : 문단에 포함된 것으로 파악하기 때문이다.
       - 대책 : 작업자가 처리한다.
  - 10. 158 페이지의 ‘필수 재료이다’ 와 아래 줄이 붙는 현상.159 페이지의 Pro-act와 Planning 줄이 붙는다.
       - 원인 : 오른쪽 경계. '필수 재료이다'는 434.0으로 major 435.0때문에 붙었음. 'Pro-act'는 516으로 오른쪽 끝에 붙은 걸 보면 붙을만 하다.
       - 대책 :  435의 경우 184p 표 때문에 생기는 것으로 filter: filled 로 제거가능.
  - 11. 191 페이지의 첫 3개 항이 붙는 현상, 192페이지의 ‘당신의 삶에서…” 와 “업무를 분담하면…” 이 붙는 현상.
       - 원인 : 오른쪽 경계
       - 대책 : 191, 192페이지 모두 bullet으로 해결가능.
  - 12 195 페이지의 “사회적 지위…” 와 “계절별로…”가 붙는 현상
       - 원인 : 오른쪽 경계
       - 대책 : 이것도 bullet으로 해결가능.




* 4831.pdf
 - 1. 3p에서 “지은이변재환” 하고 붙는 현상, 4p에서 “변재환의협소설”하고 붙는 현상.

       - 원인 : 아마도 이것은 linearize에서 같은 라인으로 취급되지 못한 것 같다.
       - 분석 : xml에서는 스페이스가 있음. 정밀 분석 필요.

 - 2. 12p에서 “들어섰다.스승님,” 붙는 현상
       - 원인 : 오른쪽 경계
       - 대책 : 왼쪽 경계 추가

  - 3. 18p에서 "있음이야!동해가”, “말씀이었다.왜 공부를" 붙는 현상,
       - 원인 : 오른쪽 경계
       - 분석 : 왜 이 오른쪽 경계가 생겼는지에 대한 정밀 분석 필요.
       - 결과 : 차례(10p)가 오른쪽 경계(432.0)를 만들어 냈다. 이로 인해 불필요한 경계로 붙는 현상 발생함.
       - 대책 :  차례 페이지를 설정 파일에 기록하고, 문단 경계를 만드는 로직에서 차례 페이지를 제외한다.
       - 해결 : texts-are-near? 전략으로 해결

  - 4. 19p에서 “시선을 옮겼다.내 선인께서는”
       - 원인 : 오른쪽 경계
       - 분석 : 왜 이 오른쪽 경계가 생겼는지에 대한 정밀 분석 필요.
       - 결과 : 차례(9p)가 오른쪽 경계(477.0)에 걸림.
       - 대책 :  차례 페이지를 설정 파일에 기록하고, 문단 경계를 만드는 로직에서 차례 페이지를 제외한다.
       - 해결 : texts-are-near? 전략으로 해결


  - 5. 23p에서 “졸랐다. 스승님”
       - 원인 : 오른쪽 경계
       - 분석 : 왜 이 오른쪽 경계가 생겼는지에 대한 정밀 분석 필요.
       - 결과 : 3번 현상의 결과와 같음.
       - 해결 : texts-are-near? 전략으로 해결

  - 6. 189p에서 "다음 카드를 내밀었다." 와 "얼마전에" 붙는 현상
       - 원인 : 오른쪽 경계
       - 분석 : 왼쪽 경계를 추가하면 됨

  - 6. 592.0 => 1페이지
  - 8. 66.0 => 1 페이지


* teado.pdf
 - 1. 13p에서 “귀먹은 거지요!예능 프로그램이다”

       - 원인 : 오른쪽 경계
       - 분석 : 왜 이 오른쪽 경계가 생겼는지에 대한 정밀 분석 필요.
       - 결과 : 99p의 테이블에서 오른쪽 경계(503.833)이 발생함.
       - 대책 : filter-full-filled-line 함수로 걸러준다.
       - 참고 : 이것은 차례에서 발생한 오른쩍 경계 문제도 동시 해결될 것으로 보임.
       - 해결 : texts-are-near? 전략으로 해결

 - 2. 16p에서 “최악의 적이 될 수 있다. 태도는”, “흩어지게 하기도 한다. 태도는"

       - 원인 : 오른쪽 경계
       - 분석 : 왜 이 오른쪽 경계가 생겼는지에 대한 정밀 분석 필요.
       - 결과 : 551.76 오른쪽 경계에 549.6이 걸림. 이 책의 경우 오른쪽 경계들의 차이가 크게 나지 않았다.
       - 대책 : 왼쪽 경계 로직이나 bullet 감지 로직.

 - 3. 16p에서 “태도는 과거 경험이”에서 bullet과의 space가 사라지는 현상.
       - 원인 : pdf 자체에 없는 것 같다. xml에서도 space가 없다.
       - 대책 : ?????
 - 4. 19p에서 “쉽게 상처를 받는다.함께” 붙는 현상.

       - 원인 : 오른쪽 경계
       - 대책 : 왼쪽 경계 추가

 - 5. 52p까지 살펴봄.

 - 6. 168.75가 오른쪽 경계로 나온 현상
       - 원인 : 148p의 표에서 발생함.
       - 대책 : 왼쪽 경계를 구해서 그 폭이 작은 경우를 제거.

* sarang.pdf
 - 1. 31p “눈부시 햇발의 쇄도에”
 - 2. 32p “나는 깨우치고 맙니다”
 - 3. 36p “환하게 웃게 해주도록”
 - 4. 40p “눈이 사삭되는 소리가”
 - 5. 42p “노오란 가을을 등기고”
 - 원인 : 56p에서 237.5 오른쪽 경계가 발생함.
 - 대책1 : 왼쪽 경계와 오른쪽 경계를 페이지의 각각 왼쪽 영역과 오른쪽 영역에 제한함.
 - 대책2 : 경계를 5개에서 10개로 늘리기.

* wol.pdf
 - 1. 350p "박외선의" "이름이 인상적이다." 가 떨어지는 현상

* 문단이란?
 - 글자의 시작 경계와 끝나는 경계가 있는 것.
 - 들여쓰기와 내어쓰기에서 첫 줄은 그 시작이 다를 수 있다.

* 다음 해야 할 일
 - 정밀 분석들
 - 구체적인 전략 세우기
 - 구현
